<?xml version="1.0" encoding="UTF-8" standalone="no"?>
<svg
   xmlns:dc="http://purl.org/dc/elements/1.1/"
   xmlns:cc="http://creativecommons.org/ns#"
   xmlns:rdf="http://www.w3.org/1999/02/22-rdf-syntax-ns#"
   xmlns:svg="http://www.w3.org/2000/svg"
   xmlns="http://www.w3.org/2000/svg"
   xmlns:sodipodi="http://sodipodi.sourceforge.net/DTD/sodipodi-0.dtd"
   xmlns:inkscape="http://www.inkscape.org/namespaces/inkscape"
   id="hohmann_transfer_orbit"
   version="1.1"
   width="1000"
   height="1200"
   inkscape:version="0.91 r13725"
   sodipodi:docname="Hohmann_transfer_orbit.svg">
  <metadata
     id="metadata85">
    <rdf:RDF>
      <cc:Work
         rdf:about="">
        <dc:format>image/svg+xml</dc:format>
        <dc:type
           rdf:resource="http://purl.org/dc/dcmitype/StillImage" />
      </cc:Work>
    </rdf:RDF>
  </metadata>
  <sodipodi:namedview
     pagecolor="#ffffff"
     bordercolor="#666666"
     borderopacity="1"
     objecttolerance="10"
     gridtolerance="10"
     guidetolerance="10"
     inkscape:pageopacity="0"
     inkscape:pageshadow="2"
     inkscape:window-width="2560"
     inkscape:window-height="1391"
     id="namedview83"
     showgrid="false"
     inkscape:zoom="1.1125147"
     inkscape:cx="670.44432"
     inkscape:cy="983.76181"
     inkscape:window-x="0"
     inkscape:window-y="1"
     inkscape:window-maximized="1"
     inkscape:current-layer="drawing" />
  <title
     id="title3">Hohmann transfer orbit.svg - illustration of a Hohmann transfer orbit</title>
  <desc
     id="desc5">
     In orbital mechanics, the Hohmann transfer orbit is an orbital maneuver
     using two engine impulses which, under standard assumptions, move a
     spacecraft between two coplanar circular orbits. This maneuver was named
     after Walter Hohmann, the German scientist who published a description of
     it in 1925.

     from Wikimedia Commons

     about: http://commons.wikimedia.org/wiki/Image:Hohmann_transfer_orbit.svg
     source: http://commons.wikimedia.org/
     rights: GNU Free Documentation license,
             Creative Commons Attribution ShareAlike license
  </desc>
  <defs
     id="defs7">
    <marker
       id="Arrow_red"
       style="fill:#d40000; stroke:none"
       refX="2.52"
       refY="2.25"
       markerUnits="strokeWidth"
       markerWidth="6"
       markerHeight="4.5"
       orient="auto">
      <path
         d="M 1,2.25 L 0,4.5 L 6,2.25 L 0 0 z"
         id="path10" />
    </marker>
    <marker
       id="Arrow_green"
       style="fill:#009f68; stroke:none"
       refX="2.52"
       refY="2.25"
       markerUnits="strokeWidth"
       markerWidth="6"
       markerHeight="4.5"
       orient="auto">
      <path
         d="M 1,2.25 L 0,4.5 L 6,2.25 L 0 0 z"
         id="path13" />
    </marker>
    <marker
       id="Arrow_yellow"
       style="fill:#ffdb00; stroke:none"
       refX="2.52"
       refY="2.25"
       markerUnits="strokeWidth"
       markerWidth="6"
       markerHeight="4.5"
       orient="auto">
      <path
         d="M 1,2.25 L 0,4.5 L 6,2.25 L 0 0 z"
         id="path16" />
    </marker>
    <marker
       id="Arrow_black"
       style="fill:#000000; stroke:none"
       refX="2"
       refY="1.5"
       markerUnits="strokeWidth"
       markerWidth="4.5"
       markerHeight="3"
       orient="auto">
      <path
         d="M 0,1.5 L 0,3 L 4.5,1.5 L 0 0 z"
         id="path19" />
    </marker>
    <marker
       id="Arrow_black1"
       style="fill:#000000; stroke:none"
       refX="1"
       refY="3"
       markerUnits="strokeWidth"
       markerWidth="3"
       markerHeight="6"
       orient="auto">
      <path
         d="M 0,6 L 3,3 L 0-0 z"
         id="path22" />
    </marker>
    <marker
       id="Arrow_black2"
       style="fill:#000000; stroke:none"
       refX="2"
       refY="3"
       markerUnits="strokeWidth"
       markerWidth="3"
       markerHeight="6"
       orient="auto">
      <path
         d="M 3,6 L 0,3 L 3,0 z"
         id="path25" />
    </marker>
  </defs>
  <g
     id="drawing"
     transform="translate(578,630)"
     style="fill:none; stroke-width:8; stroke-linecap:butt">
    <path
       id="start_orbit_dash"
       marker-end="url(#Arrow_green)"
       style="stroke:#009f68; stroke-width:4; stroke-dasharray:30,20"
       d="M 0,180 A 180,180 0 0,0 31.2567,-177.2654" />
    <path
       id="transfer_orbit_dash"
       style="stroke:#ffdb00; stroke-width:4; stroke-dasharray:30,20"
       d="M 0,-552 A 315.2142,366 0 0,0 0,180" />
    <path
       id="start_orbit"
       style="stroke:#009f68"
       d="M 0,-180 A 180,180 0 1,0 0,180" />
    <path
       id="destination_orbit"
       style="stroke:#d40000"
       marker-end="url(#Arrow_red)"
       d="M 0,-552 A 552,552 0 1,0 390.3229,390.3229" />
    <path
       id="transfer_orbit1"
       marker-end="url(#Arrow_yellow)"
       style="stroke:#ffdb00; stroke-width:10"
       d="M 0,180 A 315.2142,366 0 0,0 315.2142,-186" />
    <path
       id="transfer_orbit2"
       style="stroke:#ffdb00; stroke-width:10"
       d="M 315.2142,-186 A 315.2142,366 0 0,0 0,-552" />
    <radialGradient
       cx="0"
       cy="0"
       r="75"
       fx="-23"
       fy="-27"
       id="LightSpot"
       gradientUnits="userSpaceOnUse">
      <stop
         style="stop-color:#ffffff; stop-opacity:1"
         offset="0"
         id="stop35" />
      <stop
         style="stop-color:#f1f1f1; stop-opacity:1"
         offset="0.1312"
         id="stop37" />
      <stop
         style="stop-color:#cccccc; stop-opacity:1"
         offset="0.3796"
         id="stop39" />
      <stop
         style="stop-color:#909090; stop-opacity:1"
         offset="0.716"
         id="stop41" />
      <stop
         style="stop-color:#595959; stop-opacity:1"
         offset="1"
         id="stop43" />
    </radialGradient>
    <circle
       id="planet"
       cx="0"
       cy="0"
       r="75"
       style="fill:url(#LightSpot); stroke:#000000; stroke-width:3" />
    <path
       id="delta_v1_arrow"
       marker-end="url(#Arrow_black)"
       style="stroke:#000000; stroke-width:8"
       d="M 0,180 H 213.9433" />
    <path
       id="delta_v2_arrow"
       marker-end="url(#Arrow_black)"
       style="stroke:#000000; stroke-width:8"
       d="M 0,-552 H -160" />
    <path
       id="R1_arrow"
       marker-end="url(#Arrow_black1)"
       marker-start="url(#Arrow_black2)"
       style="stroke:#000000; stroke-width:4"
       d="M 10,0 H 170" />
    <path
       id="R2arrow"
       marker-end="url(#Arrow_black1)"
       marker-start="url(#Arrow_black2)"
       style="stroke:#000000; stroke-width:4"
       d="M -10,0 H -542" />
    <g
       id="texts"
       style="fill:black; font-size:56px; font-style:normal; font-variant:normal; font-weight:normal; font-stretch:normal; line-height:125%; text-anchor:middle; font-family:Verdana">
      <text
         id="text51">
        <tspan
           x="-140"
           y="-145"
           id="tspan53">1</tspan>
      </text>
      <text
         id="text55">
        <tspan
           x="340"
           y="-300"
           id="tspan57">2</tspan>
      </text>
      <text
         id="text59">
        <tspan
           x="-480"
           y="-320"
           id="tspan61">3</tspan>
      </text>
      <text
         id="text63">
        <tspan
           x="0"
           y="56"
           id="tspan65">O</tspan>
      </text>
      <text
         id="text67">
        <tspan
           x="110"
           y="-16"
           id="tspan69">R</tspan>
      </text>
      <text
         id="text71">
        <tspan
           x="-276"
           y="-16"
           id="tspan73">R'</tspan>
      </text>
      <text
         id="text75"
         style="font-style:normal;font-variant:normal;font-weight:normal;font-stretch:normal;font-size:56px;line-height:125%;font-family:Verdana;-inkscape-font-specification:'Verdana, Normal';text-align:center;writing-mode:lr-tb;text-anchor:middle"
         sodipodi:linespacing="125%"
         x="98.875099"
         y="237.30025">
        <tspan
           sodipodi:role="line"
           id="tspan4251"
           x="98.875099"
           y="237.30025">Δv<tspan
   style="font-size:65%;baseline-shift:sub"
   id="tspan4253">1</tspan>
</tspan>
      </text>
      <text
         id="text79"
         style="font-style:normal;font-variant:normal;font-weight:normal;font-stretch:normal;font-size:56px;line-height:125%;font-family:Verdana;-inkscape-font-specification:'Verdana, Normal';text-align:center;writing-mode:lr-tb;text-anchor:middle"
         sodipodi:linespacing="125%"
         x="-76.403488"
         y="-562.68921">
        <tspan
           sodipodi:role="line"
           id="tspan4255"
           x="-76.403488"
           y="-562.68921">Δv<tspan
   style="font-size:65%;baseline-shift:sub"
   id="tspan4257">2</tspan>
</tspan>
      </text>
    </g>
  </g>
</svg>
